{
    "type": "postgres",
    "host": "satao.db.elephantsql.com",
    "port": 5432,
    "username": "bjioesbo",
    "password": "jefs2wpV7srIuqU-lAgRgemx7s0yEXFC",
    "database": "bjioesbo",
    "synchronize": true,
    "logging": false,
    "entities": ["dist/src/**/*.entities.js","dist/src/**/**/*.entities.js"],
    "migrations": ["dist/**/migration/*.js"],
    "subscribers": [
      "src/subscriber/**/*.ts"
   ],
   "factories": [ "dist/src/factories/**/*.js" ],
   "seeds": [ "dist/src/seeds/**/*.js" ]
 }


